<?xml version="1.0" encoding="UTF-8" standalone="no"?>
<!-- Generator: Adobe Illustrator 16.0.0, SVG Export Plug-In . SVG Version: 6.00 Build 0)  -->

<svg
   xmlns:dc="http://purl.org/dc/elements/1.1/"
   xmlns:cc="http://creativecommons.org/ns#"
   xmlns:rdf="http://www.w3.org/1999/02/22-rdf-syntax-ns#"
   xmlns:svg="http://www.w3.org/2000/svg"
   xmlns="http://www.w3.org/2000/svg"
   xmlns:sodipodi="http://sodipodi.sourceforge.net/DTD/sodipodi-0.dtd"
   xmlns:inkscape="http://www.inkscape.org/namespaces/inkscape"
   version="1.1"
   id="Calque_1"
   x="0px"
   y="0px"
   width="16"
   height="16"
   viewBox="0 0 16 16.000001"
   enable-background="new 0 0 423.56 90.576"
   xml:space="preserve"
   sodipodi:docname="rcgfavicon.svg"
   inkscape:version="0.92.4 (unknown)"><metadata
   id="metadata110"><rdf:RDF><cc:Work
       rdf:about=""><dc:format>image/svg+xml</dc:format><dc:type
         rdf:resource="http://purl.org/dc/dcmitype/StillImage" /><dc:title></dc:title></cc:Work></rdf:RDF></metadata><defs
   id="defs108" /><sodipodi:namedview
   pagecolor="#ffffff"
   bordercolor="#666666"
   borderopacity="1"
   objecttolerance="10"
   gridtolerance="10"
   guidetolerance="10"
   inkscape:pageopacity="0"
   inkscape:pageshadow="2"
   inkscape:window-width="2560"
   inkscape:window-height="1016"
   id="namedview106"
   showgrid="false"
   inkscape:zoom="25.838134"
   inkscape:cx="6.9883694"
   inkscape:cy="7.9854986"
   inkscape:window-x="0"
   inkscape:window-y="27"
   inkscape:window-maximized="1"
   inkscape:current-layer="g101"
   fit-margin-top="0"
   fit-margin-left="0"
   fit-margin-right="0"
   fit-margin-bottom="0" />




<g
   id="g101"
   transform="translate(-7.4063413,-58.658024)">
	<g
   id="WRxKay_8_"
   style="fill:#ffffff"
   transform="matrix(0.29113198,0,0,0.29113198,5.4690528,52.922685)">
		<g
   id="g96"
   style="fill:#ffffff">
			<path
   stroke-miterlimit="10"
   d="m 51.046,50.071 c 0.889,-0.047 1.355,-0.483 1.696,-1.348 0.593,-1.494 1.77,-2.647 2.874,-3.76 1.217,-1.227 1.918,-2.631 2.056,-4.269 0.203,-2.418 1.119,-4.596 1.998,-6.816 -0.812,-0.747 -1.926,-0.696 -2.865,-1.075 -4.722,-1.909 -9.221,-4.249 -13.16,-7.532 -1.646,-1.371 -3.261,-2.784 -4.82,-4.253 -0.336,-0.315 -0.621,-0.291 -0.929,-0.262 -0.809,0.074 -1.587,0.309 -2.419,0.33 -0.544,0.016 -1.143,0.469 -1.045,1.166 0.385,2.708 -1.151,4.104 -3.334,5.152 -1.441,0.694 -2.821,1.515 -4.24,2.253 -1.625,0.846 -2.131,0.786 -2.995,-0.767 -0.871,-1.564 -1.577,-1.679 -3.435,-1.331 0.559,1.972 1.186,3.942 0.936,6.171 -1.5,0.085 -2.927,-0.303 -3.982,-0.968 -1.747,-1.104 -3.442,-0.717 -5.184,-0.51 -1.223,0.143 -2.421,0.483 -3.75,0.762 -0.076,1.142 -0.076,2.296 0.256,3.453 0.126,0.446 0.495,0.499 0.774,0.583 4.224,1.289 7.078,4.139 9.24,7.866 0.773,1.335 1.47,2.688 2.108,4.089 0.941,2.065 0.298,4.01 -0.119,6.063 -0.753,3.705 -2.076,7.177 -3.812,10.848 6.969,2.586 13.909,5.16 20.85,7.737"
   id="path92"
   style="fill:#ffffff;stroke:#000000;stroke-width:2;stroke-linecap:round;stroke-linejoin:round;stroke-miterlimit:10"
   inkscape:connector-curvature="0" />
			
				<path
   stroke-miterlimit="10"
   d="m 51.046,50.071 c 1.478,-0.044 3.389,0.233 3.618,1.212 0.854,3.689 1.841,7.338 3.199,10.877 0.168,0.438 0.354,0.915 -0.026,1.198 -2.649,1.97 -4.878,4.46 -7.613,6.27 -0.755,-0.366 -1.178,-0.989 -1.756,-1.402 -3.247206,-2.295794 -8.69464,-1.20936 -9.807,1.204 -0.744,1.178 -0.816,2.586 -1.07,3.923"
   id="path94"
   style="clip-rule:evenodd;fill:#ffffff;fill-rule:evenodd;stroke:#000000;stroke-width:2;stroke-linecap:round;stroke-linejoin:round;stroke-miterlimit:10"
   inkscape:connector-curvature="0"
   sodipodi:nodetypes="cccccccc" />
		</g>
	</g>
	<path
   d="m 18.349896,72.202027 c 0,0.673679 -0.546455,1.220425 -1.220716,1.220425 -0.674553,0 -1.221008,-0.546746 -1.221008,-1.220425 0,-0.674845 0.546455,-1.221299 1.221008,-1.221299 0.674261,-2.91e-4 1.220716,0.546164 1.220716,1.221299 z"
   id="path99"
   inkscape:connector-curvature="0"
   style="stroke-width:0.29113197" />
</g>

</svg>