<?xml version="1.0" encoding="UTF-8" standalone="no"?>
<!-- Generator: Adobe Illustrator 16.0.0, SVG Export Plug-In . SVG Version: 6.00 Build 0)  -->

<svg
   xmlns:dc="http://purl.org/dc/elements/1.1/"
   xmlns:cc="http://creativecommons.org/ns#"
   xmlns:rdf="http://www.w3.org/1999/02/22-rdf-syntax-ns#"
   xmlns:svg="http://www.w3.org/2000/svg"
   xmlns="http://www.w3.org/2000/svg"
   xmlns:sodipodi="http://sodipodi.sourceforge.net/DTD/sodipodi-0.dtd"
   xmlns:inkscape="http://www.inkscape.org/namespaces/inkscape"
   version="1.1"
   id="Calque_1"
   x="0px"
   y="0px"
   width="423.56px"
   height="90.576px"
   viewBox="0 0 423.56 90.576"
   enable-background="new 0 0 423.56 90.576"
   xml:space="preserve"
   sodipodi:docname="rcgicon.svg"
   inkscape:version="0.92.3 (2405546, 2018-03-11)"><metadata
   id="metadata110"><rdf:RDF><cc:Work
       rdf:about=""><dc:format>image/svg+xml</dc:format><dc:type
         rdf:resource="http://purl.org/dc/dcmitype/StillImage" /></cc:Work></rdf:RDF></metadata><defs
   id="defs108" /><sodipodi:namedview
   pagecolor="#ffffff"
   bordercolor="#666666"
   borderopacity="1"
   objecttolerance="10"
   gridtolerance="10"
   guidetolerance="10"
   inkscape:pageopacity="0"
   inkscape:pageshadow="2"
   inkscape:window-width="1920"
   inkscape:window-height="1136"
   id="namedview106"
   showgrid="false"
   inkscape:zoom="2.5842887"
   inkscape:cx="178.86794"
   inkscape:cy="32.625997"
   inkscape:window-x="0"
   inkscape:window-y="27"
   inkscape:window-maximized="1"
   inkscape:current-layer="Calque_1" />
<g
   id="g38">
	<path
   d="M89.03,39.431h-0.559V22.21l-8.6,17.221h-0.619l-8.62-17.221v17.221h-0.559V21.687h0.918l8.56,17.143l8.6-17.143h0.878   V39.431z"
   id="path2" />
	<path
   d="M104.534,33.045c0,2.233-0.705,3.952-2.115,5.155c-1.197,1.013-2.694,1.519-4.49,1.519c-1.783,0-3.272-0.515-4.47-1.544   c-1.384-1.187-2.075-2.896-2.075-5.13s0.705-3.952,2.115-5.155c1.197-1.029,2.693-1.544,4.489-1.544s3.286,0.515,4.47,1.544   C103.842,29.093,104.534,30.812,104.534,33.045z M103.975,33.045c0-2.076-0.632-3.673-1.896-4.789   c-1.078-0.942-2.448-1.413-4.11-1.413c-1.663,0-3.04,0.479-4.131,1.439c-1.264,1.116-1.896,2.704-1.896,4.763   c0,2.041,0.639,3.621,1.916,4.737c1.104,0.959,2.475,1.439,4.111,1.439c1.623,0,2.986-0.48,4.09-1.439   C103.337,36.666,103.975,35.086,103.975,33.045z"
   id="path4" />
	<path
   d="M117.823,39.431h-0.579v-8.453c0-1.466-0.506-2.556-1.517-3.271c-0.798-0.575-1.809-0.863-3.033-0.863   c-1.423,0-2.621,0.419-3.592,1.256c-1.117,0.978-1.676,2.355-1.676,4.135v7.197h-0.579V26.659h0.579v3.324   c0.306-1.291,1.011-2.251,2.115-2.879c0.891-0.506,1.936-0.759,3.133-0.759c1.33,0,2.448,0.287,3.353,0.863   c1.197,0.768,1.796,1.937,1.796,3.507V39.431z"
   id="path6" />
	<path
   d="M125.964,27.89h-2.733v11.541h-0.499l-0.06-11.541h-2.674v-0.497h2.674v-4.03h0.559v4.03h2.733V27.89z"
   id="path8" />
	<path
   d="M140.691,32.992c0,2.269-0.632,3.996-1.896,5.183c-1.118,1.029-2.574,1.544-4.37,1.544c-1.291,0-2.421-0.297-3.392-0.89   c-1.158-0.698-1.949-1.736-2.375-3.114v8.112h-0.579V26.659h0.579v3.717c0.399-1.379,1.184-2.425,2.354-3.141   c0.984-0.593,2.108-0.89,3.372-0.89c1.796,0,3.252,0.506,4.37,1.518C140.045,29.05,140.691,30.76,140.691,32.992z M140.152,33.019   c0-2.006-0.565-3.567-1.696-4.685c-1.024-0.994-2.328-1.491-3.911-1.491c-1.596,0-2.933,0.479-4.011,1.439   c-1.25,1.116-1.875,2.669-1.875,4.658c0,2.163,0.585,3.786,1.756,4.867c1.011,0.942,2.381,1.414,4.11,1.414   c1.597,0,2.907-0.498,3.931-1.492C139.586,36.613,140.152,35.043,140.152,33.019z"
   id="path10" />
	<path
   d="M155.257,33.123l-12.312,0.026c0.053,4.048,1.995,6.072,5.827,6.072c1.13,0,2.155-0.236,3.073-0.707   c1.13-0.576,1.909-1.439,2.334-2.591h0.599c-0.426,1.379-1.277,2.391-2.554,3.036c-0.998,0.506-2.168,0.759-3.512,0.759   c-1.849,0-3.319-0.488-4.41-1.466c-1.264-1.134-1.896-2.861-1.896-5.182c0-2.198,0.679-3.908,2.036-5.13   c1.17-1.063,2.64-1.596,4.41-1.596c1.729,0,3.173,0.453,4.33,1.36c1.383,1.1,2.075,2.713,2.075,4.842V33.123z M154.559,32.652   c0-1.937-0.605-3.429-1.816-4.475c-1.038-0.891-2.334-1.335-3.891-1.335c-1.57,0-2.88,0.454-3.931,1.36   c-1.21,1.03-1.869,2.513-1.975,4.449H154.559z"
   id="path12" />
	<path
   d="M157.991,39.431h-0.579V21.687h0.579V39.431z"
   id="path14" />
	<path
   d="M161.662,39.431h-0.579V21.687h0.579V39.431z"
   id="path16" />
	<path
   d="M165.333,23.44c-0.107,0.14-0.22,0.209-0.339,0.209c-0.106,0-0.187-0.069-0.239-0.209v-1.754   c0.08-0.156,0.159-0.235,0.239-0.235c0.093,0,0.206,0.079,0.339,0.235V23.44z M165.333,39.431h-0.579V26.659h0.579V39.431z"
   id="path18" />
	<path
   d="M180.418,33.123l-12.312,0.026c0.053,4.048,1.995,6.072,5.827,6.072c1.13,0,2.155-0.236,3.073-0.707   c1.13-0.576,1.909-1.439,2.334-2.591h0.599c-0.426,1.379-1.277,2.391-2.554,3.036c-0.998,0.506-2.168,0.759-3.512,0.759   c-1.849,0-3.319-0.488-4.41-1.466c-1.264-1.134-1.896-2.861-1.896-5.182c0-2.198,0.679-3.908,2.036-5.13   c1.17-1.063,2.64-1.596,4.41-1.596c1.729,0,3.173,0.453,4.33,1.36c1.383,1.1,2.075,2.713,2.075,4.842V33.123z M179.72,32.652   c0-1.937-0.605-3.429-1.816-4.475c-1.038-0.891-2.334-1.335-3.891-1.335c-1.57,0-2.88,0.454-3.931,1.36   c-1.21,1.03-1.869,2.513-1.975,4.449H179.72z"
   id="path20" />
	<path
   d="M188.879,26.843c-1.796,0-3.199,0.672-4.21,2.015c-1.011,1.344-1.516,3.185-1.516,5.522v5.051h-0.579V26.659h0.579v4.815   c-0.04-1.692,0.619-3.018,1.975-3.978c1.104-0.768,2.355-1.151,3.751-1.151V26.843z"
   id="path22" />
	<path
   d="M197.878,32.783h-6.924V32.26h6.924V32.783z"
   id="path24" />
	<path
   d="M207.216,23.624v5.626h9.917v1.911h-9.917v8.27h-1.736V21.687h13.31v1.938H207.216z"
   id="path26" />
	<path
   d="M222.221,29.826c-0.891,1.047-1.337,2.513-1.337,4.396v5.208h-1.775V26.633h1.775v1.701   c0.307-0.331,0.672-0.628,1.098-0.89c1.184-0.732,2.727-1.099,4.63-1.099v1.91C224.576,28.256,223.113,28.779,222.221,29.826z"
   id="path28" />
	<path
   d="M238.982,39.457v-1.858c-1.237,1.413-2.993,2.12-5.268,2.12c-1.81,0-3.339-0.506-4.59-1.519   c-1.489-1.186-2.234-2.896-2.234-5.129c0-2.251,0.738-3.979,2.215-5.182c1.25-1.029,2.82-1.544,4.709-1.544   c2.235,0,3.958,0.68,5.168,2.041v-1.989h1.776v13.06H238.982z M237.446,29.381c-0.932-0.75-2.182-1.125-3.751-1.125   c-1.45,0-2.635,0.401-3.553,1.204c-1.011,0.872-1.516,2.076-1.516,3.611s0.505,2.73,1.516,3.585   c0.905,0.769,2.089,1.151,3.553,1.151c1.449,0,2.68-0.4,3.691-1.203c1.063-0.854,1.596-2.032,1.596-3.533   C238.982,31.432,238.47,30.201,237.446,29.381z"
   id="path30" />
	<path
   d="M253.25,39.431v-8.244c0-1.012-0.412-1.771-1.236-2.276c-0.706-0.436-1.61-0.654-2.714-0.654   c-1.317,0-2.395,0.323-3.233,0.968c-0.957,0.733-1.437,1.763-1.437,3.089v7.118h-1.775V26.633h1.775v1.361   c1.091-1.1,2.641-1.648,4.649-1.648c1.424,0,2.641,0.287,3.651,0.863c1.397,0.785,2.096,2.032,2.096,3.742v8.479H253.25z"
   id="path32" />
	<path
   d="M267.078,38.907c-1.064,0.541-2.281,0.812-3.651,0.812c-1.889,0-3.465-0.462-4.729-1.388   c-1.57-1.168-2.355-2.86-2.355-5.077c0-2.39,0.799-4.187,2.395-5.391c1.317-1.012,2.98-1.518,4.989-1.518   c1.264,0,2.381,0.244,3.352,0.732c1.291,0.646,2.202,1.858,2.734,3.638l-1.637,0.759c-0.332-1.151-0.848-1.976-1.546-2.473   s-1.687-0.746-2.964-0.746c-1.596,0-2.893,0.393-3.891,1.178c-1.117,0.872-1.676,2.146-1.676,3.82c0,1.641,0.604,2.854,1.815,3.639   c0.931,0.61,2.095,0.915,3.492,0.915c1.104,0,2.082-0.209,2.933-0.628c0.972-0.506,1.609-1.465,1.916-2.879l1.716,0.681   C269.453,36.901,268.488,38.21,267.078,38.907z"
   id="path34" />
	<path
   d="M272.067,33.856c0.279,2.635,2.008,3.951,5.188,3.951c2.541,0,4.224-0.977,5.049-2.931h1.855   c-0.718,2.094-1.803,3.464-3.252,4.108c-1.064,0.488-2.302,0.733-3.712,0.733c-1.969,0-3.552-0.479-4.749-1.439   c-1.437-1.134-2.155-2.87-2.155-5.208c0-2.268,0.778-4.004,2.335-5.208c1.29-1.012,2.859-1.518,4.709-1.518   c1.849,0,3.393,0.436,4.629,1.309c1.583,1.116,2.375,2.765,2.375,4.946v1.229L272.067,33.856z M277.334,28.256   c-1.29,0-2.395,0.297-3.312,0.89c-1.024,0.646-1.656,1.588-1.896,2.826h10.276c-0.173-1.325-0.831-2.312-1.976-2.957   C279.549,28.509,278.518,28.256,277.334,28.256z"
   id="path36" />
</g>
<g
   id="g58">
	<path
   d="M69.187,72.382V49.056H81.2c2.228,0,3.93,0.19,5.108,0.573c1.177,0.382,2.126,1.09,2.848,2.124   c0.721,1.034,1.082,2.294,1.082,3.778c0,1.295-0.276,2.411-0.828,3.35c-0.552,0.938-1.311,1.7-2.276,2.283   c-0.616,0.372-1.459,0.679-2.532,0.923c0.859,0.287,1.484,0.574,1.876,0.86c0.265,0.191,0.649,0.6,1.153,1.227   c0.503,0.626,0.84,1.109,1.01,1.449l3.491,6.759h-8.145l-3.853-7.128c-0.488-0.923-0.923-1.522-1.305-1.799   c-0.52-0.36-1.108-0.541-1.766-0.541h-0.637v9.468H69.187z M76.426,58.507h3.04c0.329,0,0.965-0.105,1.909-0.318   c0.478-0.095,0.867-0.339,1.169-0.731s0.454-0.844,0.454-1.353c0-0.753-0.239-1.331-0.716-1.734   c-0.477-0.403-1.374-0.604-2.689-0.604h-3.167V58.507z"
   id="path40" />
	<path
   d="M94.422,49.056h19.317v4.98h-12.093v3.707h11.217v4.758h-11.217V67.1h12.443v5.282H94.422V49.056z"
   id="path42" />
	<path
   d="M133.501,62.835l6.317,1.909c-0.425,1.771-1.093,3.252-2.005,4.439c-0.913,1.188-2.045,2.084-3.397,2.689   c-1.353,0.604-3.073,0.906-5.163,0.906c-2.536,0-4.606-0.368-6.213-1.104c-1.607-0.737-2.994-2.033-4.161-3.888   c-1.167-1.855-1.75-4.229-1.75-7.124c0-3.858,1.026-6.824,3.079-8.896c2.053-2.072,4.957-3.108,8.712-3.108   c2.938,0,5.248,0.594,6.929,1.781c1.681,1.188,2.93,3.014,3.747,5.474l-6.364,1.416c-0.223-0.71-0.457-1.229-0.7-1.559   c-0.403-0.552-0.896-0.976-1.48-1.273c-0.583-0.297-1.236-0.445-1.957-0.445c-1.634,0-2.885,0.657-3.755,1.971   c-0.658,0.975-0.987,2.506-0.987,4.593c0,2.585,0.393,4.357,1.178,5.316c0.785,0.959,1.888,1.438,3.31,1.438   c1.379,0,2.421-0.388,3.126-1.162C132.67,65.434,133.183,64.31,133.501,62.835z"
   id="path44" />
	<path
   d="M142.412,60.734c0-3.808,1.061-6.772,3.182-8.895c2.122-2.121,5.076-3.182,8.863-3.182c3.882,0,6.874,1.042,8.974,3.126   c2.1,2.085,3.15,5.005,3.15,8.76c0,2.727-0.459,4.962-1.376,6.706c-0.917,1.745-2.244,3.104-3.978,4.073   c-1.734,0.971-3.896,1.456-6.484,1.456c-2.631,0-4.808-0.419-6.532-1.257s-3.121-2.164-4.192-3.978   C142.947,65.73,142.412,63.461,142.412,60.734z M149.619,60.767c0,2.354,0.438,4.047,1.313,5.075   c0.875,1.029,2.065,1.544,3.572,1.544c1.549,0,2.748-0.504,3.596-1.512s1.273-2.816,1.273-5.426c0-2.195-0.443-3.8-1.329-4.813   c-0.886-1.013-2.087-1.52-3.604-1.52c-1.453,0-2.62,0.515-3.5,1.544C150.06,56.688,149.619,58.391,149.619,60.767z"
   id="path46" />
	<path
   d="M170.384,49.056h9.479l3.655,14.193l3.63-14.193h9.474v23.326h-5.903V54.593l-4.548,17.789h-5.343l-4.54-17.789v17.789   h-5.903V49.056z"
   id="path48" />
	<path
   d="M201.236,49.056h13.493c2.249,0,3.976,0.557,5.18,1.671c1.203,1.113,1.806,2.492,1.806,4.137   c0,1.379-0.43,2.562-1.289,3.548c-0.572,0.658-1.411,1.178-2.514,1.56c1.676,0.403,2.909,1.096,3.699,2.076   c0.79,0.981,1.186,2.215,1.186,3.7c0,1.209-0.281,2.297-0.844,3.262s-1.331,1.729-2.307,2.291   c-0.604,0.351-1.518,0.604-2.737,0.764c-1.623,0.213-2.699,0.318-3.229,0.318h-12.443V49.056z M208.507,58.205h3.135   c1.124,0,1.907-0.193,2.347-0.581c0.44-0.387,0.661-0.947,0.661-1.679c0-0.679-0.221-1.209-0.661-1.591   c-0.439-0.382-1.206-0.573-2.299-0.573h-3.183V58.205z M208.507,67.37h3.676c1.241,0,2.116-0.221,2.626-0.661   c0.509-0.439,0.764-1.031,0.764-1.773c0-0.689-0.253-1.244-0.756-1.663c-0.504-0.419-1.388-0.629-2.649-0.629h-3.66V67.37z"
   id="path50" />
	<path
   d="M224.896,61.371h9.42v5.012h-9.42V61.371z"
   id="path52" />
	<path
   d="M252.948,62.835l6.317,1.909c-0.425,1.771-1.093,3.252-2.005,4.439c-0.913,1.188-2.045,2.084-3.397,2.689   c-1.353,0.604-3.073,0.906-5.163,0.906c-2.535,0-4.606-0.368-6.214-1.104c-1.606-0.737-2.994-2.033-4.16-3.888   c-1.167-1.855-1.751-4.229-1.751-7.124c0-3.858,1.026-6.824,3.079-8.896s4.957-3.108,8.712-3.108c2.938,0,5.248,0.594,6.93,1.781   c1.681,1.188,2.93,3.014,3.747,5.474l-6.365,1.416c-0.223-0.71-0.456-1.229-0.7-1.559c-0.403-0.552-0.896-0.976-1.479-1.273   c-0.583-0.297-1.235-0.445-1.957-0.445c-1.634,0-2.886,0.657-3.755,1.971c-0.658,0.975-0.986,2.506-0.986,4.593   c0,2.585,0.392,4.357,1.177,5.316s1.889,1.438,3.31,1.438c1.379,0,2.421-0.388,3.127-1.162   C252.118,65.434,252.629,64.31,252.948,62.835z"
   id="path54" />
	<path
   d="M274.492,63.933V59.08h11.139v9.944c-2.133,1.453-4.019,2.442-5.657,2.968c-1.639,0.524-3.583,0.787-5.831,0.787   c-2.769,0-5.025-0.472-6.771-1.416c-1.745-0.943-3.098-2.35-4.058-4.217c-0.96-1.866-1.439-4.009-1.439-6.428   c0-2.546,0.524-4.76,1.575-6.643c1.05-1.883,2.588-3.312,4.614-4.289c1.58-0.753,3.707-1.129,6.38-1.129   c2.578,0,4.506,0.233,5.784,0.7s2.339,1.19,3.183,2.172c0.843,0.98,1.477,2.225,1.901,3.73l-6.954,1.241   c-0.286-0.88-0.771-1.554-1.455-2.021c-0.685-0.467-1.558-0.7-2.618-0.7c-1.58,0-2.84,0.549-3.778,1.646   c-0.939,1.099-1.408,2.835-1.408,5.212c0,2.524,0.475,4.327,1.424,5.409s2.272,1.623,3.97,1.623c0.807,0,1.575-0.116,2.308-0.35   c0.731-0.233,1.569-0.631,2.514-1.193v-2.196H274.492z"
   id="path56" />
</g>
<g
   id="g68">
	<path
   d="M329.463,57.566h-24.505c0.05-6.288,3.418-11.632,10.104-16.03c1.182-0.764,3.557-2.29,7.125-4.58   c3.116-2.035,4.675-4.253,4.675-6.652c0-2.835-1.156-4.889-3.468-6.161c-1.635-0.908-3.619-1.363-5.957-1.363   c-7.188,0-10.782,3.708-10.782,11.123h-1.093c0-4.361,1.244-7.579,3.732-9.65c1.96-1.672,4.573-2.509,7.841-2.509   c2.765,0,5.039,0.51,6.824,1.527c2.613,1.454,3.921,3.854,3.921,7.197c0,2.908-2.665,6.017-7.993,9.323   c-2.84,1.745-4.913,3.072-6.22,3.98c-1.559,1.309-2.966,2.8-4.223,4.471c-2.212,2.944-3.293,5.708-3.242,8.288h23.261V57.566z"
   id="path60" />
	<path
   d="M358.944,44.316c0,4.689-1.281,8.271-3.845,10.742c-2.212,2.108-5.027,3.162-8.445,3.162s-6.258-1.054-8.52-3.162   c-2.64-2.509-3.959-6.088-3.959-10.742v-9.378c0-4.652,1.319-8.233,3.959-10.741c2.286-2.145,5.127-3.217,8.52-3.217   c3.418,0,6.233,1.055,8.445,3.162c2.563,2.508,3.845,6.106,3.845,10.796V44.316z M357.888,44.316v-9.378   c0-4.253-1.193-7.542-3.581-9.869c-2.062-2.035-4.637-3.053-7.729-3.053c-3.116,0-5.705,1-7.766,2.998   c-2.389,2.327-3.582,5.635-3.582,9.924v9.378c0,4.253,1.207,7.544,3.619,9.869c2.061,2,4.638,2.999,7.729,2.999   c3.116,0,5.705-0.999,7.767-2.999C356.707,51.896,357.888,48.606,357.888,44.316z"
   id="path62" />
	<path
   d="M377.191,57.566h-1.056V23.925l-7.842,6.979h-1.621l9.463-8.56h1.056V57.566z"
   id="path64" />
	<path
   d="M409.046,32.703v0.545c-0.051,0.183-0.075,0.327-0.075,0.437v13.631c0,3.891-1.37,6.815-4.109,8.778   c-2.137,1.527-4.7,2.291-7.69,2.291c-2.991,0-5.518-0.782-7.578-2.345c-2.639-1.963-3.958-4.907-3.958-8.833h1.018   c0,3.599,1.206,6.324,3.619,8.179c1.91,1.454,4.223,2.181,6.937,2.181c2.715,0,5.039-0.744,6.975-2.235   c2.413-1.854,3.619-4.562,3.619-8.124l0.075-9.27c-1.91,3.962-5.403,5.943-10.48,5.943c-2.991,0-5.529-0.781-7.615-2.345   c-2.639-1.963-3.958-4.907-3.958-8.833c0-3.89,1.344-6.834,4.033-8.833c2.111-1.6,4.649-2.399,7.616-2.399   c2.965,0,5.49,0.8,7.577,2.399C407.714,25.869,409.046,28.813,409.046,32.703z M408.029,32.703c0-3.635-1.207-6.38-3.619-8.233   c-1.91-1.453-4.235-2.181-6.975-2.181c-2.74,0-5.064,0.728-6.975,2.181c-2.413,1.854-3.619,4.599-3.619,8.233   c0,3.599,1.206,6.325,3.619,8.179c1.91,1.454,4.234,2.181,6.975,2.181c2.739,0,5.064-0.727,6.975-2.181   C406.822,39.028,408.029,36.302,408.029,32.703z"
   id="path66" />
</g>
<g
   id="g90">
	<path
   d="M305.394,67.429c0-2.181,0.642-3.856,1.923-5.027c1.282-1.172,2.878-1.758,4.789-1.758c1.235,0,2.362,0.262,3.38,0.785   s1.823,1.283,2.418,2.28c0.594,0.997,0.892,2.185,0.892,3.562c0,1.896-0.575,3.439-1.725,4.631   c-1.267,1.314-2.925,1.971-4.977,1.971c-2.066,0-3.729-0.674-4.987-2.023C305.965,70.629,305.394,69.155,305.394,67.429z    M307.305,67.45c0,1.577,0.464,2.801,1.393,3.671c0.929,0.869,2.057,1.305,3.385,1.305c1.359,0,2.5-0.439,3.421-1.318   c0.92-0.878,1.381-2.17,1.381-3.875c0-1.1-0.237-2.083-0.711-2.95c-0.365-0.663-0.915-1.194-1.649-1.593   c-0.733-0.398-1.536-0.598-2.406-0.598c-1.398,0-2.55,0.437-3.455,1.309C307.757,64.273,307.305,65.624,307.305,67.45z"
   id="path70" />
	<path
   d="M327.546,70.263l1.689,0.201c-0.194,1.104-0.682,1.947-1.462,2.528c-0.781,0.582-1.719,0.872-2.814,0.872   c-1.328,0-2.422-0.408-3.28-1.225c-0.858-0.817-1.287-2.025-1.287-3.624c0-1.61,0.433-2.818,1.299-3.623   c0.866-0.806,1.979-1.208,3.339-1.208c1.049,0,1.932,0.244,2.65,0.732s1.179,1.221,1.381,2.197l-1.666,0.228   c-0.163-0.625-0.447-1.093-0.851-1.402c-0.404-0.31-0.89-0.464-1.457-0.464c-0.847,0-1.548,0.28-2.103,0.841   c-0.556,0.562-0.834,1.452-0.834,2.673c0,1.262,0.267,2.175,0.799,2.738c0.532,0.564,1.214,0.847,2.045,0.847   c0.652,0,1.21-0.188,1.672-0.562S327.422,71.054,327.546,70.263z"
   id="path72" />
	<path
   d="M334.514,72.251l0.233,1.387c-0.474,0.093-0.901,0.14-1.281,0.14c-0.599,0-1.08-0.089-1.445-0.266   c-0.365-0.178-0.616-0.42-0.752-0.729c-0.136-0.308-0.204-0.922-0.204-1.84v-5.329h-1.258v-1.221h1.258v-2.293l1.714-0.942v3.235   h1.735v1.221h-1.735v5.416c0,0.5,0.05,0.823,0.151,0.968c0.147,0.21,0.423,0.314,0.827,0.314   C333.952,72.312,334.204,72.292,334.514,72.251z"
   id="path74" />
	<path
   d="M335.481,69.024c0-1.599,0.449-2.805,1.347-3.619c0.896-0.813,2.033-1.221,3.408-1.221c1.352,0,2.481,0.407,3.391,1.221   c0.909,0.814,1.363,1.988,1.363,3.523c0,1.663-0.446,2.901-1.34,3.715c-0.894,0.814-2.031,1.221-3.414,1.221   c-1.359,0-2.492-0.408-3.396-1.225C335.934,71.822,335.481,70.617,335.481,69.024z M337.241,69.021   c0,1.199,0.292,2.091,0.874,2.676c0.583,0.585,1.306,0.878,2.168,0.878c0.808,0,1.501-0.296,2.08-0.887   c0.578-0.591,0.867-1.479,0.867-2.667c0-1.193-0.291-2.083-0.873-2.668c-0.583-0.585-1.306-0.877-2.168-0.877   c-0.815,0-1.511,0.294-2.086,0.882S337.241,67.833,337.241,69.021z"
   id="path76" />
	<path
   d="M348.591,73.655h-1.597V60.87h1.725v4.562c0.365-0.419,0.778-0.731,1.241-0.938c0.462-0.206,0.977-0.31,1.544-0.31   c0.792,0,1.513,0.178,2.161,0.532s1.167,0.893,1.556,1.613s0.583,1.596,0.583,2.625c0,1.569-0.44,2.78-1.319,3.632   s-1.906,1.277-3.081,1.277c-0.592,0-1.123-0.114-1.594-0.344c-0.471-0.23-0.877-0.571-1.219-1.025V73.655z M348.565,68.955   c0,0.959,0.117,1.677,0.351,2.153c0.233,0.478,0.564,0.841,0.993,1.091s0.903,0.375,1.425,0.375c0.709,0,1.338-0.298,1.887-0.895   c0.55-0.596,0.824-1.486,0.824-2.673c0-1.215-0.265-2.107-0.795-2.677c-0.529-0.57-1.18-0.854-1.951-0.854   c-0.708,0-1.341,0.298-1.898,0.894C348.843,66.965,348.565,67.827,348.565,68.955z"
   id="path78" />
	<path
   d="M364.834,70.673l1.771,0.2c-0.295,0.988-0.829,1.734-1.603,2.237c-0.772,0.503-1.73,0.754-2.872,0.754   c-1.438,0-2.601-0.408-3.49-1.225c-0.89-0.817-1.334-1.996-1.334-3.537c0-1.599,0.448-2.817,1.346-3.658   c0.897-0.84,2.033-1.26,3.409-1.26c1.312,0,2.407,0.413,3.285,1.238s1.317,2.021,1.317,3.584l-0.012,0.419h-7.574   c0.069,1.041,0.392,1.825,0.967,2.354s1.274,0.794,2.098,0.794C363.432,72.574,364.33,71.94,364.834,70.673z M359.183,68.135h5.663   c-0.077-0.802-0.307-1.4-0.688-1.796c-0.552-0.576-1.254-0.863-2.108-0.863c-0.77,0-1.426,0.239-1.97,0.719   S359.238,67.321,359.183,68.135z"
   id="path80" />
	<path
   d="M368.786,73.655v-9.262h1.55v1.404c0.396-0.651,0.759-1.083,1.089-1.295s0.701-0.318,1.113-0.318   c0.574,0,1.161,0.169,1.76,0.506l-0.583,1.456c-0.428-0.227-0.843-0.34-1.247-0.34c-0.365,0-0.699,0.096-1.002,0.288   c-0.303,0.191-0.517,0.459-0.641,0.802c-0.218,0.599-0.326,1.235-0.326,1.91v4.849H368.786z"
   id="path82" />
	<path
   d="M386.731,73.655h-1.725V63.652c-0.396,0.349-0.929,0.705-1.597,1.068s-1.281,0.639-1.841,0.824v-1.518   c0.947-0.406,1.784-0.904,2.511-1.491s1.237-1.16,1.532-1.718h1.119V73.655z"
   id="path84" />
	<path
   d="M390.971,69.818v-1.579h5.279v1.579H390.971z"
   id="path86" />
	<path
   d="M405.024,73.655v-3.061h-6.071v-1.439l6.385-8.285h1.411v8.285h1.898v1.439h-1.898v3.061H405.024z M405.024,69.155v-5.765   l-4.378,5.765H405.024z"
   id="path88" />
</g>
<g
   id="g101">
	<g
   id="WRxKay_8_">
		<g
   id="g96">
			<path
   fill="none"
   stroke="#000000"
   stroke-width="2"
   stroke-linecap="round"
   stroke-linejoin="round"
   stroke-miterlimit="10"
   d="     M51.046,50.071c0.889-0.047,1.355-0.483,1.696-1.348c0.593-1.494,1.77-2.647,2.874-3.76c1.217-1.227,1.918-2.631,2.056-4.269     c0.203-2.418,1.119-4.596,1.998-6.816c-0.812-0.747-1.926-0.696-2.865-1.075c-4.722-1.909-9.221-4.249-13.16-7.532     c-1.646-1.371-3.261-2.784-4.82-4.253c-0.336-0.315-0.621-0.291-0.929-0.262c-0.809,0.074-1.587,0.309-2.419,0.33     c-0.544,0.016-1.143,0.469-1.045,1.166c0.385,2.708-1.151,4.104-3.334,5.152c-1.441,0.694-2.821,1.515-4.24,2.253     c-1.625,0.846-2.131,0.786-2.995-0.767c-0.871-1.564-1.577-1.679-3.435-1.331c0.559,1.972,1.186,3.942,0.936,6.171     c-1.5,0.085-2.927-0.303-3.982-0.968c-1.747-1.104-3.442-0.717-5.184-0.51c-1.223,0.143-2.421,0.483-3.75,0.762     c-0.076,1.142-0.076,2.296,0.256,3.453c0.126,0.446,0.495,0.499,0.774,0.583c4.224,1.289,7.078,4.139,9.24,7.866     c0.773,1.335,1.47,2.688,2.108,4.089c0.941,2.065,0.298,4.01-0.119,6.063c-0.753,3.705-2.076,7.177-3.812,10.848     c6.969,2.586,13.909,5.16,20.85,7.737"
   id="path92" />
			
				<path
   fill-rule="evenodd"
   clip-rule="evenodd"
   fill="none"
   stroke="#000000"
   stroke-width="2"
   stroke-linecap="round"
   stroke-linejoin="round"
   stroke-miterlimit="10"
   d="     M52.861,49.163c1.478-0.044,1.574,1.141,1.803,2.12c0.854,3.689,1.841,7.338,3.199,10.877c0.168,0.438,0.354,0.915-0.026,1.198     c-2.649,1.97-4.878,4.46-7.613,6.27c-0.755-0.366-1.178-0.989-1.756-1.402c-3.234-2.309-7.564-2.34-9.807,1.204     c-0.744,1.178-0.816,2.586-1.07,3.923"
   id="path94" />
		</g>
	</g>
	<path
   d="M44.244,66.222c0,2.314-1.877,4.192-4.193,4.192c-2.317,0-4.194-1.878-4.194-4.192c0-2.318,1.877-4.195,4.194-4.195   C42.367,62.026,44.244,63.903,44.244,66.222z"
   id="path99" />
</g>
<line
   fill="none"
   stroke="#000000"
   x1="295.739"
   y1="20.865"
   x2="295.739"
   y2="72.382"
   id="line103" />
</svg>